"Benchmark","Mode","Threads","Samples","Score","Score Error (99.9%)","Unit","Param: listSize","Param: repositorySize"
"com.mle.lab2.benchmark.eclipse.EclipseUnifiedCollectionBenchmarkTest.testAdd","avgt",1,5,31.144266,5.911415,"ns/op",,100
"com.mle.lab2.benchmark.eclipse.EclipseUnifiedCollectionBenchmarkTest.testAdd","avgt",1,5,35.770659,8.343680,"ns/op",,1000
"com.mle.lab2.benchmark.eclipse.EclipseUnifiedCollectionBenchmarkTest.testAdd","avgt",1,5,114.116148,8.078965,"ns/op",,10000
"com.mle.lab2.benchmark.eclipse.EclipseUnifiedCollectionBenchmarkTest.testAdd","avgt",1,5,819.540954,832.377302,"ns/op",,100000
"com.mle.lab2.benchmark.eclipse.EclipseUnifiedCollectionBenchmarkTest.testContains","avgt",1,5,30.972826,6.345127,"ns/op",,100
"com.mle.lab2.benchmark.eclipse.EclipseUnifiedCollectionBenchmarkTest.testContains","avgt",1,5,79.795636,0.876420,"ns/op",,1000
"com.mle.lab2.benchmark.eclipse.EclipseUnifiedCollectionBenchmarkTest.testContains","avgt",1,5,141.276672,31.482488,"ns/op",,10000
"com.mle.lab2.benchmark.eclipse.EclipseUnifiedCollectionBenchmarkTest.testContains","avgt",1,5,659.201674,206.951213,"ns/op",,100000
"com.mle.lab2.benchmark.eclipse.EclipseUnifiedCollectionBenchmarkTest.testRemove","avgt",1,5,30.170531,0.176712,"ns/op",,100
"com.mle.lab2.benchmark.eclipse.EclipseUnifiedCollectionBenchmarkTest.testRemove","avgt",1,5,32.475104,1.004349,"ns/op",,1000
"com.mle.lab2.benchmark.eclipse.EclipseUnifiedCollectionBenchmarkTest.testRemove","avgt",1,5,114.842103,19.952715,"ns/op",,10000
"com.mle.lab2.benchmark.eclipse.EclipseUnifiedCollectionBenchmarkTest.testRemove","avgt",1,5,647.387197,139.366570,"ns/op",,100000
"com.mle.lab2.benchmark.fastutil.FastUtilAVLTreeSetRepositoryTest.testAdd","avgt",1,5,76.627192,13.016254,"ns/op",,100
"com.mle.lab2.benchmark.fastutil.FastUtilAVLTreeSetRepositoryTest.testAdd","avgt",1,5,133.511497,79.341732,"ns/op",,1000
"com.mle.lab2.benchmark.fastutil.FastUtilAVLTreeSetRepositoryTest.testAdd","avgt",1,5,358.559000,82.304510,"ns/op",,10000
"com.mle.lab2.benchmark.fastutil.FastUtilAVLTreeSetRepositoryTest.testAdd","avgt",1,5,709.213846,351.810722,"ns/op",,100000
"com.mle.lab2.benchmark.fastutil.FastUtilAVLTreeSetRepositoryTest.testContains","avgt",1,5,38.870350,0.868786,"ns/op",,100
"com.mle.lab2.benchmark.fastutil.FastUtilAVLTreeSetRepositoryTest.testContains","avgt",1,5,97.420179,63.505141,"ns/op",,1000
"com.mle.lab2.benchmark.fastutil.FastUtilAVLTreeSetRepositoryTest.testContains","avgt",1,5,476.080942,225.665680,"ns/op",,10000
"com.mle.lab2.benchmark.fastutil.FastUtilAVLTreeSetRepositoryTest.testContains","avgt",1,5,1748.981538,1275.398322,"ns/op",,100000
"com.mle.lab2.benchmark.fastutil.FastUtilAVLTreeSetRepositoryTest.testRemove","avgt",1,5,45.235300,0.591435,"ns/op",,100
"com.mle.lab2.benchmark.fastutil.FastUtilAVLTreeSetRepositoryTest.testRemove","avgt",1,5,129.211981,102.697728,"ns/op",,1000
"com.mle.lab2.benchmark.fastutil.FastUtilAVLTreeSetRepositoryTest.testRemove","avgt",1,5,576.290547,72.511533,"ns/op",,10000
"com.mle.lab2.benchmark.fastutil.FastUtilAVLTreeSetRepositoryTest.testRemove","avgt",1,5,2151.033433,1277.085003,"ns/op",,100000
"com.mle.lab2.benchmark.jdk.collections.ArrayListBasedRepositoryBenchmarkTest.testAdd","avgt",1,5,120.205386,1.443960,"ns/op",,100
"com.mle.lab2.benchmark.jdk.collections.ArrayListBasedRepositoryBenchmarkTest.testAdd","avgt",1,5,1129.747320,32.123500,"ns/op",,1000
"com.mle.lab2.benchmark.jdk.collections.ArrayListBasedRepositoryBenchmarkTest.testAdd","avgt",1,5,10887.990000,2131.093490,"ns/op",,10000
"com.mle.lab2.benchmark.jdk.collections.ArrayListBasedRepositoryBenchmarkTest.testAdd","avgt",1,5,105260.000000,12947.586511,"ns/op",,100000
"com.mle.lab2.benchmark.jdk.collections.ArrayListBasedRepositoryBenchmarkTest.testContains","avgt",1,5,72.810034,1.548926,"ns/op",,100
"com.mle.lab2.benchmark.jdk.collections.ArrayListBasedRepositoryBenchmarkTest.testContains","avgt",1,5,589.938434,63.711012,"ns/op",,1000
"com.mle.lab2.benchmark.jdk.collections.ArrayListBasedRepositoryBenchmarkTest.testContains","avgt",1,5,6976.568831,1710.653050,"ns/op",,10000
"com.mle.lab2.benchmark.jdk.collections.ArrayListBasedRepositoryBenchmarkTest.testContains","avgt",1,5,60820.400000,10697.259879,"ns/op",,100000
"com.mle.lab2.benchmark.jdk.collections.ArrayListBasedRepositoryBenchmarkTest.testRemove","avgt",1,5,107.232957,0.643738,"ns/op",,100
"com.mle.lab2.benchmark.jdk.collections.ArrayListBasedRepositoryBenchmarkTest.testRemove","avgt",1,5,270.678078,40.926642,"ns/op",,1000
"com.mle.lab2.benchmark.jdk.collections.ArrayListBasedRepositoryBenchmarkTest.testRemove","avgt",1,5,6110.463684,2659.756570,"ns/op",,10000
"com.mle.lab2.benchmark.jdk.collections.ArrayListBasedRepositoryBenchmarkTest.testRemove","avgt",1,5,47160.000000,11901.760779,"ns/op",,100000
"com.mle.lab2.benchmark.jdk.collections.HashSetBasedRepositoryBenchmarkTest.testAdd","avgt",1,5,38.798815,0.307547,"ns/op",,100
"com.mle.lab2.benchmark.jdk.collections.HashSetBasedRepositoryBenchmarkTest.testAdd","avgt",1,5,85.208032,1.401985,"ns/op",,1000
"com.mle.lab2.benchmark.jdk.collections.HashSetBasedRepositoryBenchmarkTest.testAdd","avgt",1,5,141.511399,8.380079,"ns/op",,10000
"com.mle.lab2.benchmark.jdk.collections.HashSetBasedRepositoryBenchmarkTest.testAdd","avgt",1,5,582.982279,126.234043,"ns/op",,100000
"com.mle.lab2.benchmark.jdk.collections.HashSetBasedRepositoryBenchmarkTest.testContains","avgt",1,5,30.034272,0.192831,"ns/op",,100
"com.mle.lab2.benchmark.jdk.collections.HashSetBasedRepositoryBenchmarkTest.testContains","avgt",1,5,89.473722,2.409561,"ns/op",,1000
"com.mle.lab2.benchmark.jdk.collections.HashSetBasedRepositoryBenchmarkTest.testContains","avgt",1,5,188.142102,7.602754,"ns/op",,10000
"com.mle.lab2.benchmark.jdk.collections.HashSetBasedRepositoryBenchmarkTest.testContains","avgt",1,5,821.748174,127.096937,"ns/op",,100000
"com.mle.lab2.benchmark.jdk.collections.HashSetBasedRepositoryBenchmarkTest.testRemove","avgt",1,5,31.543228,0.446918,"ns/op",,100
"com.mle.lab2.benchmark.jdk.collections.HashSetBasedRepositoryBenchmarkTest.testRemove","avgt",1,5,88.968836,1.341673,"ns/op",,1000
"com.mle.lab2.benchmark.jdk.collections.HashSetBasedRepositoryBenchmarkTest.testRemove","avgt",1,5,146.281167,9.865578,"ns/op",,10000
"com.mle.lab2.benchmark.jdk.collections.HashSetBasedRepositoryBenchmarkTest.testRemove","avgt",1,5,954.941768,143.597027,"ns/op",,100000
"com.mle.lab2.benchmark.jdk.collections.TreeSetBasedRepositoryBenchmarkTest.testAdd","avgt",1,5,85.042244,1.880662,"ns/op",,100
"com.mle.lab2.benchmark.jdk.collections.TreeSetBasedRepositoryBenchmarkTest.testAdd","avgt",1,5,150.354872,67.469553,"ns/op",,1000
"com.mle.lab2.benchmark.jdk.collections.TreeSetBasedRepositoryBenchmarkTest.testAdd","avgt",1,5,506.246341,52.085706,"ns/op",,10000
"com.mle.lab2.benchmark.jdk.collections.TreeSetBasedRepositoryBenchmarkTest.testAdd","avgt",1,5,1406.783744,1843.849974,"ns/op",,100000
"com.mle.lab2.benchmark.jdk.collections.TreeSetBasedRepositoryBenchmarkTest.testContains","avgt",1,5,38.761459,0.858707,"ns/op",,100
"com.mle.lab2.benchmark.jdk.collections.TreeSetBasedRepositoryBenchmarkTest.testContains","avgt",1,5,87.499900,47.385058,"ns/op",,1000
"com.mle.lab2.benchmark.jdk.collections.TreeSetBasedRepositoryBenchmarkTest.testContains","avgt",1,5,409.046151,45.700607,"ns/op",,10000
"com.mle.lab2.benchmark.jdk.collections.TreeSetBasedRepositoryBenchmarkTest.testContains","avgt",1,5,2402.502116,1414.615342,"ns/op",,100000
"com.mle.lab2.benchmark.jdk.collections.TreeSetBasedRepositoryBenchmarkTest.testRemove","avgt",1,5,61.114905,5.306065,"ns/op",,100
"com.mle.lab2.benchmark.jdk.collections.TreeSetBasedRepositoryBenchmarkTest.testRemove","avgt",1,5,148.674370,61.173849,"ns/op",,1000
"com.mle.lab2.benchmark.jdk.collections.TreeSetBasedRepositoryBenchmarkTest.testRemove","avgt",1,5,815.799613,61.334414,"ns/op",,10000
"com.mle.lab2.benchmark.jdk.collections.TreeSetBasedRepositoryBenchmarkTest.testRemove","avgt",1,5,6824.706878,4459.842446,"ns/op",,100000
"com.mle.lab2.benchmark.jdk.map.ConcurrentHashMapBasedRepositoryBenchmarkTest.testAdd","avgt",1,5,54.682745,2.090458,"ns/op",,100
"com.mle.lab2.benchmark.jdk.map.ConcurrentHashMapBasedRepositoryBenchmarkTest.testAdd","avgt",1,5,112.101425,25.282633,"ns/op",,1000
"com.mle.lab2.benchmark.jdk.map.ConcurrentHashMapBasedRepositoryBenchmarkTest.testAdd","avgt",1,5,194.836484,32.731678,"ns/op",,10000
"com.mle.lab2.benchmark.jdk.map.ConcurrentHashMapBasedRepositoryBenchmarkTest.testAdd","avgt",1,5,916.593719,90.794982,"ns/op",,100000
"com.mle.lab2.benchmark.jdk.map.ConcurrentHashMapBasedRepositoryBenchmarkTest.testContains","avgt",1,5,30.210315,0.466428,"ns/op",,100
"com.mle.lab2.benchmark.jdk.map.ConcurrentHashMapBasedRepositoryBenchmarkTest.testContains","avgt",1,5,116.721737,64.827760,"ns/op",,1000
"com.mle.lab2.benchmark.jdk.map.ConcurrentHashMapBasedRepositoryBenchmarkTest.testContains","avgt",1,5,190.601338,20.228107,"ns/op",,10000
"com.mle.lab2.benchmark.jdk.map.ConcurrentHashMapBasedRepositoryBenchmarkTest.testContains","avgt",1,5,1488.899094,477.646011,"ns/op",,100000
"com.mle.lab2.benchmark.jdk.map.ConcurrentHashMapBasedRepositoryBenchmarkTest.testRemove","avgt",1,5,54.830826,1.436679,"ns/op",,100
"com.mle.lab2.benchmark.jdk.map.ConcurrentHashMapBasedRepositoryBenchmarkTest.testRemove","avgt",1,5,127.950123,33.642370,"ns/op",,1000
"com.mle.lab2.benchmark.jdk.map.ConcurrentHashMapBasedRepositoryBenchmarkTest.testRemove","avgt",1,5,230.491259,23.551987,"ns/op",,10000
"com.mle.lab2.benchmark.jdk.map.ConcurrentHashMapBasedRepositoryBenchmarkTest.testRemove","avgt",1,5,1965.564036,324.294859,"ns/op",,100000
"com.mle.lab2.benchmark.primitive.FastUtilPrimitiveSetTest.testAdd","avgt",1,5,39.219999,0.518166,"ns/op",100,
"com.mle.lab2.benchmark.primitive.FastUtilPrimitiveSetTest.testAdd","avgt",1,5,36.388865,12.222516,"ns/op",1000,
"com.mle.lab2.benchmark.primitive.FastUtilPrimitiveSetTest.testAdd","avgt",1,5,106.835186,7.001704,"ns/op",10000,
"com.mle.lab2.benchmark.primitive.FastUtilPrimitiveSetTest.testAdd","avgt",1,5,371.966823,109.323960,"ns/op",100000,
"com.mle.lab2.benchmark.primitive.FastUtilPrimitiveSetTest.testAdd","avgt",1,5,2988.740000,4202.814436,"ns/op",1000000,
"com.mle.lab2.benchmark.primitive.FastUtilPrimitiveSetTest.testContains","avgt",1,5,26.642164,0.300696,"ns/op",100,
"com.mle.lab2.benchmark.primitive.FastUtilPrimitiveSetTest.testContains","avgt",1,5,26.671837,1.270105,"ns/op",1000,
"com.mle.lab2.benchmark.primitive.FastUtilPrimitiveSetTest.testContains","avgt",1,5,127.335303,10.961813,"ns/op",10000,
"com.mle.lab2.benchmark.primitive.FastUtilPrimitiveSetTest.testContains","avgt",1,5,489.127622,161.703919,"ns/op",100000,
"com.mle.lab2.benchmark.primitive.FastUtilPrimitiveSetTest.testContains","avgt",1,5,5448.653333,4809.580788,"ns/op",1000000,
"com.mle.lab2.benchmark.primitive.FastUtilPrimitiveSetTest.testRemove","avgt",1,5,31.965819,0.291355,"ns/op",100,
"com.mle.lab2.benchmark.primitive.FastUtilPrimitiveSetTest.testRemove","avgt",1,5,31.864597,0.574289,"ns/op",1000,
"com.mle.lab2.benchmark.primitive.FastUtilPrimitiveSetTest.testRemove","avgt",1,5,153.629739,7.549147,"ns/op",10000,
"com.mle.lab2.benchmark.primitive.FastUtilPrimitiveSetTest.testRemove","avgt",1,5,641.470228,133.538214,"ns/op",100000,
"com.mle.lab2.benchmark.primitive.FastUtilPrimitiveSetTest.testRemove","avgt",1,5,10057.360000,6794.856806,"ns/op",1000000,
"com.mle.lab2.benchmark.primitive.Trove4jPrimitiveSetTest.testAdd","avgt",1,5,31.264185,0.559858,"ns/op",100,
"com.mle.lab2.benchmark.primitive.Trove4jPrimitiveSetTest.testAdd","avgt",1,5,86.148424,9.038442,"ns/op",1000,
"com.mle.lab2.benchmark.primitive.Trove4jPrimitiveSetTest.testAdd","avgt",1,5,114.419066,17.217505,"ns/op",10000,
"com.mle.lab2.benchmark.primitive.Trove4jPrimitiveSetTest.testAdd","avgt",1,5,310.561658,88.960160,"ns/op",100000,
"com.mle.lab2.benchmark.primitive.Trove4jPrimitiveSetTest.testAdd","avgt",1,5,1487.023270,449.770705,"ns/op",1000000,
"com.mle.lab2.benchmark.primitive.Trove4jPrimitiveSetTest.testContains","avgt",1,5,28.122959,0.368805,"ns/op",100,
"com.mle.lab2.benchmark.primitive.Trove4jPrimitiveSetTest.testContains","avgt",1,5,74.178264,2.191835,"ns/op",1000,
"com.mle.lab2.benchmark.primitive.Trove4jPrimitiveSetTest.testContains","avgt",1,5,154.069410,10.333559,"ns/op",10000,
"com.mle.lab2.benchmark.primitive.Trove4jPrimitiveSetTest.testContains","avgt",1,5,367.556020,328.799678,"ns/op",100000,
"com.mle.lab2.benchmark.primitive.Trove4jPrimitiveSetTest.testContains","avgt",1,5,3293.142532,5569.224544,"ns/op",1000000,
"com.mle.lab2.benchmark.primitive.Trove4jPrimitiveSetTest.testRemove","avgt",1,5,31.611546,0.257767,"ns/op",100,
"com.mle.lab2.benchmark.primitive.Trove4jPrimitiveSetTest.testRemove","avgt",1,5,37.971463,2.115614,"ns/op",1000,
"com.mle.lab2.benchmark.primitive.Trove4jPrimitiveSetTest.testRemove","avgt",1,5,159.340341,8.959899,"ns/op",10000,
"com.mle.lab2.benchmark.primitive.Trove4jPrimitiveSetTest.testRemove","avgt",1,5,425.467566,425.507264,"ns/op",100000,
"com.mle.lab2.benchmark.primitive.Trove4jPrimitiveSetTest.testRemove","avgt",1,5,4089.766364,7721.075642,"ns/op",1000000,
